EESchema Schematic File Version 4
EELAYER 30 0
EELAYER END
$Descr A4 11693 8268
encoding utf-8
Sheet 1 1
Title "Automatic Guitar Tuner"
Date "2021-11-07"
Rev "v02"
Comp ""
Comment1 ""
Comment2 "creativecommons.org/licences/by/4.0"
Comment3 "CC by 4.0"
Comment4 "Author: Guyrandy Jean-Gilles"
$EndDescr
$Comp
L Switch:SW_Push SW2
U 1 1 61589A26
P 1100 900
F 0 "SW2" H 1250 1100 50  0000 C CNN
F 1 "SW_PUSH" H 1350 1000 50  0000 C CNN
F 2 "Button_Switch_THT:SW_PUSH_6mm" H 1100 900 50  0001 C CNN
F 3 "" H 1100 900 50  0001 C CNN
	1    1100 900 
	1    0    0    -1  
$EndComp
$Comp
L power:+3.3V #PWR0101
U 1 1 6158B5EB
P 750 700
F 0 "#PWR0101" H 750 550 50  0001 C CNN
F 1 "+3.3V" H 765 873 50  0000 C CNN
F 2 "" H 750 700 50  0001 C CNN
F 3 "" H 750 700 50  0001 C CNN
	1    750  700 
	1    0    0    -1  
$EndComp
Wire Wire Line
	900  900  750  900 
Wire Wire Line
	750  900  750  700 
Text GLabel 1450 900  2    50   Input ~ 0
LISTEN_PIN
$Comp
L Device:R_US R4
U 1 1 6158CB14
P 1350 1150
F 0 "R4" H 1418 1196 50  0000 L CNN
F 1 "10k" H 1418 1105 50  0000 L CNN
F 2 "Resistor_SMD:R_0805_2012Metric" V 1390 1140 50  0001 C CNN
F 3 "~" H 1350 1150 50  0001 C CNN
	1    1350 1150
	1    0    0    -1  
$EndComp
$Comp
L power:GND #PWR0102
U 1 1 6158D35A
P 1350 1300
F 0 "#PWR0102" H 1350 1050 50  0001 C CNN
F 1 "GND" H 1355 1127 50  0000 C CNN
F 2 "" H 1350 1300 50  0001 C CNN
F 3 "" H 1350 1300 50  0001 C CNN
	1    1350 1300
	1    0    0    -1  
$EndComp
$Comp
L Switch:SW_Push SW3
U 1 1 615902E7
P 2700 2100
F 0 "SW3" H 2850 2300 50  0000 C CNN
F 1 "SW_PUSH" H 2950 2200 50  0000 C CNN
F 2 "Button_Switch_THT:SW_PUSH_6mm" H 2700 2100 50  0001 C CNN
F 3 "" H 2700 2100 50  0001 C CNN
	1    2700 2100
	1    0    0    -1  
$EndComp
$Comp
L power:+3.3V #PWR0103
U 1 1 615902ED
P 2350 1900
F 0 "#PWR0103" H 2350 1750 50  0001 C CNN
F 1 "+3.3V" H 2365 2073 50  0000 C CNN
F 2 "" H 2350 1900 50  0001 C CNN
F 3 "" H 2350 1900 50  0001 C CNN
	1    2350 1900
	1    0    0    -1  
$EndComp
Wire Wire Line
	2500 2100 2350 2100
Wire Wire Line
	2350 2100 2350 1900
$Comp
L Device:R_US R14
U 1 1 615902F7
P 3000 2400
F 0 "R14" H 3068 2446 50  0000 L CNN
F 1 "10k" H 3068 2355 50  0000 L CNN
F 2 "Resistor_SMD:R_0805_2012Metric" V 3040 2390 50  0001 C CNN
F 3 "~" H 3000 2400 50  0001 C CNN
	1    3000 2400
	1    0    0    -1  
$EndComp
$Comp
L power:GND #PWR0104
U 1 1 615902FD
P 3000 2550
F 0 "#PWR0104" H 3000 2300 50  0001 C CNN
F 1 "GND" H 3005 2377 50  0000 C CNN
F 2 "" H 3000 2550 50  0001 C CNN
F 3 "" H 3000 2550 50  0001 C CNN
	1    3000 2550
	1    0    0    -1  
$EndComp
Text GLabel 3050 2100 2    50   Input ~ 0
PITCH_INCREASE_PIN
$Comp
L Switch:SW_Push SW1
U 1 1 615963F3
P 950 2100
F 0 "SW1" H 1100 2300 50  0000 C CNN
F 1 "SW_PUSH" H 1200 2200 50  0000 C CNN
F 2 "Button_Switch_THT:SW_PUSH_6mm" H 950 2100 50  0001 C CNN
F 3 "" H 950 2100 50  0001 C CNN
	1    950  2100
	1    0    0    -1  
$EndComp
$Comp
L power:+3.3V #PWR0105
U 1 1 615963F9
P 600 1900
F 0 "#PWR0105" H 600 1750 50  0001 C CNN
F 1 "+3.3V" H 615 2073 50  0000 C CNN
F 2 "" H 600 1900 50  0001 C CNN
F 3 "" H 600 1900 50  0001 C CNN
	1    600  1900
	1    0    0    -1  
$EndComp
Wire Wire Line
	750  2100 600  2100
Wire Wire Line
	600  2100 600  1900
$Comp
L power:GND #PWR0106
U 1 1 61596408
P 1250 2550
F 0 "#PWR0106" H 1250 2300 50  0001 C CNN
F 1 "GND" H 1255 2377 50  0000 C CNN
F 2 "" H 1250 2550 50  0001 C CNN
F 3 "" H 1250 2550 50  0001 C CNN
	1    1250 2550
	1    0    0    -1  
$EndComp
Text GLabel 1300 2100 2    50   Input ~ 0
PITCH_DECRERASE_PIN
$Comp
L Switch:SW_Push SW4
U 1 1 615B119A
P 2600 1100
F 0 "SW4" H 2600 1350 50  0000 C CNN
F 1 "SW_PUSH" H 2600 1250 50  0000 C CNN
F 2 "Button_Switch_THT:SW_PUSH_6mm" H 2600 1100 50  0001 C CNN
F 3 "" H 2600 1100 50  0001 C CNN
	1    2600 1100
	1    0    0    -1  
$EndComp
$Comp
L power:+3.3V #PWR0107
U 1 1 615B31FA
P 2950 800
F 0 "#PWR0107" H 2950 650 50  0001 C CNN
F 1 "+3.3V" H 2965 973 50  0000 C CNN
F 2 "" H 2950 800 50  0001 C CNN
F 3 "" H 2950 800 50  0001 C CNN
	1    2950 800 
	1    0    0    -1  
$EndComp
Wire Wire Line
	2950 1100 2900 1100
Text GLabel 3000 1250 2    50   Input ~ 0
BOOTSEL_PIN
$Comp
L Device:R_US R15
U 1 1 615B4696
P 2950 950
F 0 "R15" H 3018 996 50  0000 L CNN
F 1 "10K" H 3018 905 50  0000 L CNN
F 2 "Resistor_SMD:R_0805_2012Metric" V 2990 940 50  0001 C CNN
F 3 "~" H 2950 950 50  0001 C CNN
	1    2950 950 
	1    0    0    -1  
$EndComp
$Comp
L power:GND #PWR0108
U 1 1 615B872B
P 2200 1150
F 0 "#PWR0108" H 2200 900 50  0001 C CNN
F 1 "GND" H 2205 977 50  0000 C CNN
F 2 "" H 2200 1150 50  0001 C CNN
F 3 "" H 2200 1150 50  0001 C CNN
	1    2200 1150
	1    0    0    -1  
$EndComp
Wire Wire Line
	2200 1150 2200 1100
Wire Wire Line
	2200 1100 2400 1100
$Comp
L Driver_Motor:L293D U5
U 1 1 615C14FE
P 9650 2100
F 0 "U5" H 9650 3281 50  0000 C CNN
F 1 "L293D" H 9650 3190 50  0000 C CNN
F 2 "Package_DIP:DIP-16_W7.62mm" H 9900 1350 50  0001 L CNN
F 3 "http://www.ti.com/lit/ds/symlink/l293.pdf" H 9350 2800 50  0001 C CNN
	1    9650 2100
	1    0    0    -1  
$EndComp
$Comp
L power:+3.3V #PWR0109
U 1 1 615C389B
P 9300 700
F 0 "#PWR0109" H 9300 550 50  0001 C CNN
F 1 "+3.3V" H 9315 873 50  0000 C CNN
F 2 "" H 9300 700 50  0001 C CNN
F 3 "" H 9300 700 50  0001 C CNN
	1    9300 700 
	1    0    0    -1  
$EndComp
$Comp
L power:+3.3V #PWR0110
U 1 1 615C3D0E
P 9950 700
F 0 "#PWR0110" H 9950 550 50  0001 C CNN
F 1 "+3.3V" H 9965 873 50  0000 C CNN
F 2 "" H 9950 700 50  0001 C CNN
F 3 "" H 9950 700 50  0001 C CNN
	1    9950 700 
	1    0    0    -1  
$EndComp
Wire Wire Line
	9550 1100 9300 1100
Wire Wire Line
	9750 1100 9950 1100
NoConn ~ 9150 2500
NoConn ~ 9150 2100
NoConn ~ 9150 2300
NoConn ~ 10150 2100
NoConn ~ 10150 2300
$Comp
L power:GND #PWR0111
U 1 1 615C6A0B
P 9650 3100
F 0 "#PWR0111" H 9650 2850 50  0001 C CNN
F 1 "GND" H 9655 2927 50  0000 C CNN
F 2 "" H 9650 3100 50  0001 C CNN
F 3 "" H 9650 3100 50  0001 C CNN
	1    9650 3100
	1    0    0    -1  
$EndComp
Wire Wire Line
	9550 2900 9550 3000
Wire Wire Line
	9750 3100 9750 3000
Wire Wire Line
	9450 2900 9450 3000
Wire Wire Line
	9450 3000 9550 3000
Connection ~ 9550 3000
Wire Wire Line
	9550 3000 9550 3100
Wire Wire Line
	9850 2900 9850 3000
Wire Wire Line
	9850 3000 9750 3000
Connection ~ 9750 3000
Wire Wire Line
	9750 3000 9750 2900
Text GLabel 9150 1500 0    50   Input ~ 0
MOTOR_PIN_1
Text GLabel 9150 1700 0    50   Input ~ 0
MOTOR_PIN_2
Text GLabel 9150 1900 0    50   Input ~ 0
MOTOR_SPEED_PIN
$Comp
L Connector_Generic:Conn_01x02 J5
U 1 1 615DBC80
P 10550 1500
F 0 "J5" H 10650 1500 50  0000 L CNN
F 1 "Conn_01x02" H 10650 1400 50  0000 L CNN
F 2 "Connector_JST:JST_PH_S2B-PH-K_1x02_P2.00mm_Horizontal" H 10550 1500 50  0001 C CNN
F 3 "~" H 10550 1500 50  0001 C CNN
	1    10550 1500
	1    0    0    -1  
$EndComp
$Comp
L Connector_Generic:Conn_01x08 J3
U 1 1 615E9A9C
P 6050 4700
F 0 "J3" H 6130 4692 50  0000 L CNN
F 1 "Conn_01x08" H 6130 4601 50  0000 L CNN
F 2 "Connector_PinSocket_2.54mm:PinSocket_1x08_P2.54mm_Vertical" H 6050 4700 50  0001 C CNN
F 3 "~" H 6050 4700 50  0001 C CNN
	1    6050 4700
	1    0    0    -1  
$EndComp
$Comp
L power:+3.3V #PWR0112
U 1 1 615EABDA
P 5550 4100
F 0 "#PWR0112" H 5550 3950 50  0001 C CNN
F 1 "+3.3V" H 5565 4273 50  0000 C CNN
F 2 "" H 5550 4100 50  0001 C CNN
F 3 "" H 5550 4100 50  0001 C CNN
	1    5550 4100
	1    0    0    -1  
$EndComp
Wire Wire Line
	5850 4400 5550 4400
Wire Wire Line
	5550 4400 5550 4100
$Comp
L power:GND #PWR0113
U 1 1 615EC11E
P 4950 4650
F 0 "#PWR0113" H 4950 4400 50  0001 C CNN
F 1 "GND" H 4955 4477 50  0000 C CNN
F 2 "" H 4950 4650 50  0001 C CNN
F 3 "" H 4950 4650 50  0001 C CNN
	1    4950 4650
	1    0    0    -1  
$EndComp
Text GLabel 5850 4600 0    50   Input ~ 0
LCD_CHIP_SELECT
Wire Wire Line
	4950 4500 4950 4650
Wire Wire Line
	4950 4500 5850 4500
Text GLabel 5850 4700 0    50   Input ~ 0
LCD_RESET
Text GLabel 5850 4800 0    50   Input ~ 0
LCD_DATA_COMMAND
Text GLabel 5850 4900 0    50   Input ~ 0
LCD_MOSI
Text GLabel 5850 5000 0    50   Input ~ 0
LCD_CLOCK
Text GLabel 5850 5100 0    50   Input ~ 0
LCD_BACKLIGHT
$Comp
L Connector_Generic:Conn_01x03 J2
U 1 1 615F59A0
P 1450 5500
F 0 "J2" H 1530 5542 50  0000 L CNN
F 1 "Conn_01x03" H 1530 5451 50  0000 L CNN
F 2 "Connector_PinSocket_2.54mm:PinSocket_1x03_P2.54mm_Vertical" H 1450 5500 50  0001 C CNN
F 3 "~" H 1450 5500 50  0001 C CNN
	1    1450 5500
	1    0    0    -1  
$EndComp
$Comp
L power:+3.3V #PWR0114
U 1 1 615F8986
P 950 5150
F 0 "#PWR0114" H 950 5000 50  0001 C CNN
F 1 "+3.3V" H 965 5323 50  0000 C CNN
F 2 "" H 950 5150 50  0001 C CNN
F 3 "" H 950 5150 50  0001 C CNN
	1    950  5150
	1    0    0    -1  
$EndComp
Wire Wire Line
	1250 5400 950  5400
Wire Wire Line
	950  5400 950  5150
$Comp
L power:GND #PWR0115
U 1 1 615F96E7
P 600 5550
F 0 "#PWR0115" H 600 5300 50  0001 C CNN
F 1 "GND" H 605 5377 50  0000 C CNN
F 2 "" H 600 5550 50  0001 C CNN
F 3 "" H 600 5550 50  0001 C CNN
	1    600  5550
	1    0    0    -1  
$EndComp
Text GLabel 1250 5600 0    50   Input ~ 0
MIC_OUTPUT
Wire Wire Line
	600  5500 600  5550
Wire Wire Line
	600  5500 1250 5500
$Comp
L Amplifier_Audio:Max4465 U1
U 1 1 61603F42
P 2900 3950
F 0 "U1" H 2450 4250 50  0000 L CNN
F 1 "Max4465" H 2450 4150 50  0000 L CNN
F 2 "Package_SO:TSOP-5_1.65x3.05mm_P0.95mm" H 2900 3950 50  0001 C CNN
F 3 "" H 2900 3950 50  0001 C CNN
	1    2900 3950
	1    0    0    -1  
$EndComp
$Comp
L power:+3.3V #PWR0116
U 1 1 616101B0
P 2900 3200
F 0 "#PWR0116" H 2900 3050 50  0001 C CNN
F 1 "+3.3V" H 2915 3373 50  0000 C CNN
F 2 "" H 2900 3200 50  0001 C CNN
F 3 "" H 2900 3200 50  0001 C CNN
	1    2900 3200
	1    0    0    -1  
$EndComp
$Comp
L power:GND #PWR0117
U 1 1 61610EE6
P 2900 4350
F 0 "#PWR0117" H 2900 4100 50  0001 C CNN
F 1 "GND" H 2905 4177 50  0000 C CNN
F 2 "" H 2900 4350 50  0001 C CNN
F 3 "" H 2900 4350 50  0001 C CNN
	1    2900 4350
	1    0    0    -1  
$EndComp
Text GLabel 3350 3950 2    50   Output ~ 0
MIC_OUTPUT
Wire Wire Line
	3350 3950 3250 3950
$Comp
L Device:Microphone MK1
U 1 1 61619078
P 600 4050
F 0 "MK1" H 730 4096 50  0000 L CNN
F 1 "Microphone" H 730 4005 50  0000 L CNN
F 2 "Sensor_Audio:ELECTRET-MIC-CMA-4544PF-W" V 600 4150 50  0001 C CNN
F 3 "~" V 600 4150 50  0001 C CNN
	1    600  4050
	1    0    0    -1  
$EndComp
$Comp
L power:GND #PWR0118
U 1 1 6161A51A
P 600 4250
F 0 "#PWR0118" H 600 4000 50  0001 C CNN
F 1 "GND" H 605 4077 50  0000 C CNN
F 2 "" H 600 4250 50  0001 C CNN
F 3 "" H 600 4250 50  0001 C CNN
	1    600  4250
	1    0    0    -1  
$EndComp
$Comp
L power:GND #PWR0119
U 1 1 61620DC8
P 1400 3600
F 0 "#PWR0119" H 1400 3350 50  0001 C CNN
F 1 "GND" H 1405 3427 50  0000 C CNN
F 2 "" H 1400 3600 50  0001 C CNN
F 3 "" H 1400 3600 50  0001 C CNN
	1    1400 3600
	1    0    0    -1  
$EndComp
Connection ~ 1050 3400
Wire Wire Line
	1050 3400 1400 3400
$Comp
L Device:C_Small C1
U 1 1 6161FA15
P 1400 3500
F 0 "C1" H 1492 3546 50  0000 L CNN
F 1 "0.1uF" H 1492 3455 50  0000 L CNN
F 2 "Capacitor_SMD:C_0805_2012Metric" H 1400 3500 50  0001 C CNN
F 3 "~" H 1400 3500 50  0001 C CNN
	1    1400 3500
	1    0    0    -1  
$EndComp
$Comp
L power:+3.3V #PWR0120
U 1 1 6161DFC4
P 1050 3100
F 0 "#PWR0120" H 1050 2950 50  0001 C CNN
F 1 "+3.3V" H 1065 3273 50  0000 C CNN
F 2 "" H 1050 3100 50  0001 C CNN
F 3 "" H 1050 3100 50  0001 C CNN
	1    1050 3100
	1    0    0    -1  
$EndComp
$Comp
L Device:R_US R1
U 1 1 6161DA4E
P 1050 3250
F 0 "R1" H 1118 3296 50  0000 L CNN
F 1 "2k" H 1118 3205 50  0000 L CNN
F 2 "Resistor_SMD:R_0805_2012Metric" V 1090 3240 50  0001 C CNN
F 3 "~" H 1050 3250 50  0001 C CNN
	1    1050 3250
	1    0    0    -1  
$EndComp
$Comp
L Device:R_US R2
U 1 1 6161D00C
P 1050 3550
F 0 "R2" H 1118 3596 50  0000 L CNN
F 1 "2k" H 1118 3505 50  0000 L CNN
F 2 "Resistor_SMD:R_0805_2012Metric" V 1090 3540 50  0001 C CNN
F 3 "~" H 1050 3550 50  0001 C CNN
	1    1050 3550
	1    0    0    -1  
$EndComp
Wire Wire Line
	600  3850 1050 3850
Wire Wire Line
	1050 3700 1050 3850
$Comp
L Device:C_Small C2
U 1 1 6162A1D0
P 1700 3850
F 0 "C2" V 1950 3850 50  0000 C CNN
F 1 "0.01uF" V 1850 3850 50  0000 C CNN
F 2 "Capacitor_SMD:C_0805_2012Metric" H 1700 3850 50  0001 C CNN
F 3 "~" H 1700 3850 50  0001 C CNN
	1    1700 3850
	0    1    1    0   
$EndComp
Wire Wire Line
	1600 3850 1050 3850
Connection ~ 1050 3850
$Comp
L Device:R_US R6
U 1 1 6165385A
P 1900 3700
F 0 "R6" H 1968 3746 50  0000 L CNN
F 1 "1M" H 1968 3655 50  0000 L CNN
F 2 "Resistor_SMD:R_0805_2012Metric" V 1940 3690 50  0001 C CNN
F 3 "~" H 1900 3700 50  0001 C CNN
	1    1900 3700
	1    0    0    -1  
$EndComp
$Comp
L power:+3.3V #PWR0121
U 1 1 61654509
P 1900 3550
F 0 "#PWR0121" H 1900 3400 50  0001 C CNN
F 1 "+3.3V" H 1915 3723 50  0000 C CNN
F 2 "" H 1900 3550 50  0001 C CNN
F 3 "" H 1900 3550 50  0001 C CNN
	1    1900 3550
	1    0    0    -1  
$EndComp
Wire Wire Line
	1800 3850 1900 3850
Wire Wire Line
	1900 3850 2350 3850
Connection ~ 1900 3850
$Comp
L power:GND #PWR0122
U 1 1 61658BD1
P 1900 4150
F 0 "#PWR0122" H 1900 3900 50  0001 C CNN
F 1 "GND" H 1905 3977 50  0000 C CNN
F 2 "" H 1900 4150 50  0001 C CNN
F 3 "" H 1900 4150 50  0001 C CNN
	1    1900 4150
	1    0    0    -1  
$EndComp
$Comp
L Device:R_US R13
U 1 1 61673E06
P 2800 4900
F 0 "R13" V 2595 4900 50  0000 C CNN
F 1 "100k" V 2686 4900 50  0000 C CNN
F 2 "Resistor_SMD:R_0805_2012Metric" V 2840 4890 50  0001 C CNN
F 3 "~" H 2800 4900 50  0001 C CNN
	1    2800 4900
	0    1    1    0   
$EndComp
Wire Wire Line
	2350 4050 2350 4900
Wire Wire Line
	2350 4900 2650 4900
Wire Wire Line
	2950 4900 3250 4900
Wire Wire Line
	3250 4900 3250 3950
Connection ~ 3250 3950
$Comp
L Device:C_Small C6
U 1 1 6167759E
P 2800 5050
F 0 "C6" V 3050 5050 50  0000 C CNN
F 1 "100pF" V 2950 5050 50  0000 C CNN
F 2 "Capacitor_SMD:C_0805_2012Metric" H 2800 5050 50  0001 C CNN
F 3 "~" H 2800 5050 50  0001 C CNN
	1    2800 5050
	0    1    1    0   
$EndComp
Wire Wire Line
	2900 5050 3250 5050
Wire Wire Line
	3250 5050 3250 4900
Connection ~ 3250 4900
Wire Wire Line
	2700 5050 2350 5050
Wire Wire Line
	2350 5050 2350 4900
Connection ~ 2350 4900
$Comp
L Device:R_US R7
U 1 1 61658764
P 1900 4000
F 0 "R7" H 1968 4046 50  0000 L CNN
F 1 "1M" H 1968 3955 50  0000 L CNN
F 2 "Resistor_SMD:R_0805_2012Metric" V 1940 3990 50  0001 C CNN
F 3 "~" H 1900 4000 50  0001 C CNN
	1    1900 4000
	1    0    0    -1  
$EndComp
$Comp
L Device:R_US R10
U 1 1 6167C067
P 2100 4400
F 0 "R10" H 2168 4446 50  0000 L CNN
F 1 "10k" H 2168 4355 50  0000 L CNN
F 2 "Resistor_SMD:R_0805_2012Metric" V 2140 4390 50  0001 C CNN
F 3 "~" H 2100 4400 50  0001 C CNN
	1    2100 4400
	1    0    0    -1  
$EndComp
$Comp
L Device:C_Small C3
U 1 1 6167D937
P 2100 4650
F 0 "C3" H 1850 4700 50  0000 L CNN
F 1 "1uF" H 1800 4600 50  0000 L CNN
F 2 "Capacitor_SMD:C_0805_2012Metric" H 2100 4650 50  0001 C CNN
F 3 "~" H 2100 4650 50  0001 C CNN
	1    2100 4650
	1    0    0    -1  
$EndComp
$Comp
L power:GND #PWR0123
U 1 1 6167E912
P 2100 4750
F 0 "#PWR0123" H 2100 4500 50  0001 C CNN
F 1 "GND" H 2105 4577 50  0000 C CNN
F 2 "" H 2100 4750 50  0001 C CNN
F 3 "" H 2100 4750 50  0001 C CNN
	1    2100 4750
	1    0    0    -1  
$EndComp
Wire Wire Line
	2100 4250 2100 4050
Wire Wire Line
	2100 4050 2350 4050
Connection ~ 2350 4050
$Comp
L Connector:AudioJack3_Switch J1
U 1 1 616AE549
P 1000 7200
F 0 "J1" H 982 7625 50  0000 C CNN
F 1 "AudioJack3_Switch" H 982 7534 50  0000 C CNN
F 2 "Connector_Audio:Jack_6.35mm_Neutrik_NMJ6HCD2_Horizontal" H 1000 7200 50  0001 C CNN
F 3 "~" H 1000 7200 50  0001 C CNN
	1    1000 7200
	1    0    0    -1  
$EndComp
NoConn ~ 1200 7100
NoConn ~ 1200 7300
NoConn ~ 1200 7500
$Comp
L power:GND #PWR0124
U 1 1 616B8DC8
P 1500 7200
F 0 "#PWR0124" H 1500 6950 50  0001 C CNN
F 1 "GND" H 1500 7050 50  0000 C CNN
F 2 "" H 1500 7200 50  0001 C CNN
F 3 "" H 1500 7200 50  0001 C CNN
	1    1500 7200
	1    0    0    -1  
$EndComp
Wire Wire Line
	1200 7000 1500 7000
Wire Wire Line
	1500 7000 1500 7200
Wire Wire Line
	1200 7200 1500 7200
Connection ~ 1500 7200
$Comp
L pspice:OPAMP U2
U 1 1 616BF544
P 3750 7300
F 0 "U2" H 3750 7450 50  0000 L CNN
F 1 "OPAMP" H 3750 7150 50  0000 L CNN
F 2 "Package_DIP:DIP-8_W7.62mm" H 3750 7300 50  0001 C CNN
F 3 "~" H 3750 7300 50  0001 C CNN
	1    3750 7300
	1    0    0    -1  
$EndComp
Wire Wire Line
	1200 7400 1700 7400
$Comp
L Device:R_Small_US R5
U 1 1 616C2EFE
P 1700 7500
F 0 "R5" H 1768 7546 50  0000 L CNN
F 1 "1M" H 1768 7455 50  0000 L CNN
F 2 "Resistor_SMD:R_0805_2012Metric" H 1700 7500 50  0001 C CNN
F 3 "~" H 1700 7500 50  0001 C CNN
	1    1700 7500
	1    0    0    -1  
$EndComp
$Comp
L power:GND #PWR0125
U 1 1 616C35C0
P 1700 7600
F 0 "#PWR0125" H 1700 7350 50  0001 C CNN
F 1 "GND" H 1700 7450 50  0000 C CNN
F 2 "" H 1700 7600 50  0001 C CNN
F 3 "" H 1700 7600 50  0001 C CNN
	1    1700 7600
	1    0    0    -1  
$EndComp
$Comp
L Device:C_Small C4
U 1 1 616C3EF4
P 2100 7400
F 0 "C4" V 2329 7400 50  0000 C CNN
F 1 "0.1uF" V 2238 7400 50  0000 C CNN
F 2 "Capacitor_SMD:C_0805_2012Metric" H 2100 7400 50  0001 C CNN
F 3 "~" H 2100 7400 50  0001 C CNN
	1    2100 7400
	0    -1   -1   0   
$EndComp
Wire Wire Line
	1700 7400 2000 7400
Connection ~ 1700 7400
$Comp
L Device:R_Small_US R11
U 1 1 616C655D
P 2350 7300
F 0 "R11" H 2418 7346 50  0000 L CNN
F 1 "1M" H 2418 7255 50  0000 L CNN
F 2 "Resistor_SMD:R_0805_2012Metric" H 2350 7300 50  0001 C CNN
F 3 "~" H 2350 7300 50  0001 C CNN
	1    2350 7300
	1    0    0    -1  
$EndComp
$Comp
L Device:R_Small_US R9
U 1 1 616C6B73
P 2050 6750
F 0 "R9" H 2118 6796 50  0000 L CNN
F 1 "2k" H 2118 6705 50  0000 L CNN
F 2 "Resistor_SMD:R_0805_2012Metric" H 2050 6750 50  0001 C CNN
F 3 "~" H 2050 6750 50  0001 C CNN
	1    2050 6750
	1    0    0    -1  
$EndComp
$Comp
L Device:R_Small_US R8
U 1 1 616CA570
P 2050 6550
F 0 "R8" H 2118 6596 50  0000 L CNN
F 1 "2k" H 2118 6505 50  0000 L CNN
F 2 "Resistor_SMD:R_0805_2012Metric" H 2050 6550 50  0001 C CNN
F 3 "~" H 2050 6550 50  0001 C CNN
	1    2050 6550
	1    0    0    -1  
$EndComp
$Comp
L power:+3.3V #PWR0126
U 1 1 616CA9B0
P 2050 6450
F 0 "#PWR0126" H 2050 6300 50  0001 C CNN
F 1 "+3.3V" H 2065 6623 50  0000 C CNN
F 2 "" H 2050 6450 50  0001 C CNN
F 3 "" H 2050 6450 50  0001 C CNN
	1    2050 6450
	1    0    0    -1  
$EndComp
$Comp
L Device:C_Small C7
U 1 1 616D528B
P 3050 7500
F 0 "C7" H 3142 7546 50  0000 L CNN
F 1 "6.8nF" H 3142 7455 50  0000 L CNN
F 2 "Capacitor_SMD:C_0805_2012Metric" H 3050 7500 50  0001 C CNN
F 3 "~" H 3050 7500 50  0001 C CNN
	1    3050 7500
	1    0    0    -1  
$EndComp
$Comp
L Device:R_Small_US R12
U 1 1 616D5B1F
P 2700 7400
F 0 "R12" V 2800 7400 50  0000 C CNN
F 1 "4.7k" V 2900 7400 50  0000 C CNN
F 2 "Resistor_SMD:R_0805_2012Metric" H 2700 7400 50  0001 C CNN
F 3 "~" H 2700 7400 50  0001 C CNN
	1    2700 7400
	0    1    1    0   
$EndComp
$Comp
L power:GND #PWR0127
U 1 1 616D4D8A
P 2050 6850
F 0 "#PWR0127" H 2050 6600 50  0001 C CNN
F 1 "GND" H 2050 6700 50  0000 C CNN
F 2 "" H 2050 6850 50  0001 C CNN
F 3 "" H 2050 6850 50  0001 C CNN
	1    2050 6850
	1    0    0    -1  
$EndComp
Wire Wire Line
	2200 7400 2350 7400
Wire Wire Line
	2600 7400 2350 7400
Connection ~ 2350 7400
Wire Wire Line
	2800 7400 3050 7400
$Comp
L power:GND #PWR0128
U 1 1 616DD46D
P 3050 7600
F 0 "#PWR0128" H 3050 7350 50  0001 C CNN
F 1 "GND" H 3050 7450 50  0000 C CNN
F 2 "" H 3050 7600 50  0001 C CNN
F 3 "" H 3050 7600 50  0001 C CNN
	1    3050 7600
	1    0    0    -1  
$EndComp
Wire Wire Line
	3450 7400 3050 7400
Connection ~ 3050 7400
$Comp
L power:+3.3V #PWR0129
U 1 1 616E3521
P 3650 6650
F 0 "#PWR0129" H 3650 6500 50  0001 C CNN
F 1 "+3.3V" H 3800 6700 50  0000 C CNN
F 2 "" H 3650 6650 50  0001 C CNN
F 3 "" H 3650 6650 50  0001 C CNN
	1    3650 6650
	1    0    0    -1  
$EndComp
$Comp
L power:GND #PWR0130
U 1 1 616E3AA8
P 3650 7600
F 0 "#PWR0130" H 3650 7350 50  0001 C CNN
F 1 "GND" H 3650 7450 50  0000 C CNN
F 2 "" H 3650 7600 50  0001 C CNN
F 3 "" H 3650 7600 50  0001 C CNN
	1    3650 7600
	1    0    0    -1  
$EndComp
$Comp
L Device:R_Small_US R18
U 1 1 616E3F4C
P 4150 7300
F 0 "R18" V 4250 7300 50  0000 C CNN
F 1 "4.7k" V 4350 7300 50  0000 C CNN
F 2 "Resistor_SMD:R_0805_2012Metric" H 4150 7300 50  0001 C CNN
F 3 "~" H 4150 7300 50  0001 C CNN
	1    4150 7300
	0    1    1    0   
$EndComp
$Comp
L Device:C_Small C9
U 1 1 616E458F
P 4400 7400
F 0 "C9" H 4492 7446 50  0000 L CNN
F 1 "6.8nF" H 4492 7355 50  0000 L CNN
F 2 "Capacitor_SMD:C_0805_2012Metric" H 4400 7400 50  0001 C CNN
F 3 "~" H 4400 7400 50  0001 C CNN
	1    4400 7400
	1    0    0    -1  
$EndComp
Wire Wire Line
	4250 7300 4400 7300
$Comp
L power:GND #PWR0131
U 1 1 616E6793
P 4400 7500
F 0 "#PWR0131" H 4400 7250 50  0001 C CNN
F 1 "GND" H 4400 7350 50  0000 C CNN
F 2 "" H 4400 7500 50  0001 C CNN
F 3 "" H 4400 7500 50  0001 C CNN
	1    4400 7500
	1    0    0    -1  
$EndComp
Text GLabel 4750 7300 2    50   Output ~ 0
LINE_IN
Wire Wire Line
	4400 7300 4750 7300
Connection ~ 4400 7300
$Comp
L Device:R_US R17
U 1 1 616E922A
P 3750 6500
F 0 "R17" V 3545 6500 50  0000 C CNN
F 1 "100k" V 3636 6500 50  0000 C CNN
F 2 "Resistor_SMD:R_0805_2012Metric" V 3790 6490 50  0001 C CNN
F 3 "~" H 3750 6500 50  0001 C CNN
	1    3750 6500
	0    1    1    0   
$EndComp
$Comp
L Device:C_Small C8
U 1 1 616E9B9E
P 3750 6150
F 0 "C8" V 3500 6150 50  0000 C CNN
F 1 "100pF" V 3600 6150 50  0000 C CNN
F 2 "Capacitor_SMD:C_0805_2012Metric" H 3750 6150 50  0001 C CNN
F 3 "~" H 3750 6150 50  0001 C CNN
	1    3750 6150
	0    1    1    0   
$EndComp
Wire Wire Line
	4400 7300 4400 6500
Wire Wire Line
	4400 6500 3900 6500
Wire Wire Line
	4400 6500 4400 6150
Wire Wire Line
	4400 6150 3850 6150
Connection ~ 4400 6500
Wire Wire Line
	3650 6150 3450 6150
Wire Wire Line
	3600 6500 3450 6500
Wire Wire Line
	3450 6150 3450 6250
Connection ~ 3450 6500
Wire Wire Line
	3450 6500 3450 7200
$Comp
L Device:R_POT_US RV1
U 1 1 616F52DC
P 3200 6500
F 0 "RV1" V 3087 6500 50  0000 C CNN
F 1 "500k" V 2996 6500 50  0000 C CNN
F 2 "Potentiometer_SMD:Potentiometer_Bourns_3214G_Horizontal" H 3200 6500 50  0001 C CNN
F 3 "~" H 3200 6500 50  0001 C CNN
	1    3200 6500
	0    -1   -1   0   
$EndComp
Wire Wire Line
	2050 6650 2350 6650
Wire Wire Line
	2350 6650 2350 7200
Connection ~ 2050 6650
Wire Wire Line
	3450 6500 3350 6500
Wire Wire Line
	3200 6350 3200 6250
Wire Wire Line
	3200 6250 3450 6250
Connection ~ 3450 6250
Wire Wire Line
	3450 6250 3450 6500
$Comp
L Device:R_Small_US R16
U 1 1 6170AE3B
P 2950 6500
F 0 "R16" V 3050 6500 50  0000 C CNN
F 1 "4.7k" V 2850 6500 50  0000 C CNN
F 2 "Resistor_SMD:R_0805_2012Metric" H 2950 6500 50  0001 C CNN
F 3 "~" H 2950 6500 50  0001 C CNN
	1    2950 6500
	0    1    1    0   
$EndComp
$Comp
L Device:CP C5
U 1 1 6170C7BB
P 2600 6650
F 0 "C5" H 2482 6604 50  0000 R CNN
F 1 "4.7uF" H 2482 6695 50  0000 R CNN
F 2 "Capacitor_THT:CP_Axial_L10.0mm_D4.5mm_P15.00mm_Horizontal" H 2638 6500 50  0001 C CNN
F 3 "~" H 2600 6650 50  0001 C CNN
	1    2600 6650
	-1   0    0    1   
$EndComp
Wire Wire Line
	2850 6500 2600 6500
$Comp
L power:GND #PWR0132
U 1 1 6171005D
P 2600 6800
F 0 "#PWR0132" H 2600 6550 50  0001 C CNN
F 1 "GND" H 2600 6650 50  0000 C CNN
F 2 "" H 2600 6800 50  0001 C CNN
F 3 "" H 2600 6800 50  0001 C CNN
	1    2600 6800
	1    0    0    -1  
$EndComp
$Comp
L MCU_RaspberryPi_and_Boards:Pico U4
U 1 1 6172B836
P 9300 5000
F 0 "U4" H 9300 6100 50  0000 C CNN
F 1 "Pico" H 9300 6000 50  0000 C CNN
F 2 "MCU_RaspberryPi_and_Boards:RPi_Pico_SMD_TH" V 9300 5000 50  0001 C CNN
F 3 "" H 9300 5000 50  0001 C CNN
	1    9300 5000
	1    0    0    -1  
$EndComp
$Comp
L power:+3.3V #PWR0133
U 1 1 6172EABD
P 10150 4450
F 0 "#PWR0133" H 10150 4300 50  0001 C CNN
F 1 "+3.3V" H 10300 4500 50  0000 C CNN
F 2 "" H 10150 4450 50  0001 C CNN
F 3 "" H 10150 4450 50  0001 C CNN
	1    10150 4450
	1    0    0    -1  
$EndComp
Wire Wire Line
	10150 4450 10000 4450
Text GLabel 8600 4350 0    50   Output ~ 0
MOTOR_PIN_1
Text GLabel 8600 4450 0    50   Output ~ 0
MOTOR_PIN_2
Text GLabel 10000 4950 2    50   Input ~ 0
MIC_OUTPUT
Text GLabel 10000 5050 2    50   Input ~ 0
BOOTSEL_PIN
Text GLabel 8600 5850 0    50   Input ~ 0
LISTEN_PIN
Text GLabel 10000 5350 2    50   Input ~ 0
PITCH_DECRERASE_PIN
Text GLabel 10000 5150 2    50   Input ~ 0
PITCH_INCREASE_PIN
Text GLabel 8600 5950 0    50   Output ~ 0
LCD_RESET
Text GLabel 10000 5850 2    50   Output ~ 0
LCD_CHIP_SELECT
Text GLabel 10000 5650 2    50   Output ~ 0
LCD_CLOCK
Text GLabel 10000 5550 2    50   Output ~ 0
LCD_MOSI
Text GLabel 10000 4850 2    50   Output ~ 0
LCD_DATA_COMMAND
Text GLabel 8600 4550 0    50   Output ~ 0
MOTOR_SPEED_PIN
Text GLabel 10000 4650 2    50   Input ~ 0
LINE_IN
Text GLabel 10000 5450 2    50   Output ~ 0
LCD_BACKLIGHT
NoConn ~ 9200 6150
NoConn ~ 9300 6150
NoConn ~ 9400 6150
NoConn ~ 10000 5950
NoConn ~ 10000 4550
NoConn ~ 10000 4350
NoConn ~ 8600 4050
NoConn ~ 8600 4150
NoConn ~ 8600 4650
NoConn ~ 8600 4850
NoConn ~ 8600 4950
NoConn ~ 8600 5050
NoConn ~ 8600 5150
NoConn ~ 8600 5350
NoConn ~ 8600 5450
NoConn ~ 8600 5550
NoConn ~ 8600 5650
$Comp
L power:GND #PWR0134
U 1 1 61764CFA
P 7550 6250
F 0 "#PWR0134" H 7550 6000 50  0001 C CNN
F 1 "GND" H 7555 6077 50  0000 C CNN
F 2 "" H 7550 6250 50  0001 C CNN
F 3 "" H 7550 6250 50  0001 C CNN
	1    7550 6250
	1    0    0    -1  
$EndComp
Wire Wire Line
	7550 6250 7550 5750
Wire Wire Line
	7550 5750 8600 5750
Wire Wire Line
	8600 5250 7550 5250
Wire Wire Line
	7550 5250 7550 5750
Connection ~ 7550 5750
Wire Wire Line
	8600 4750 7550 4750
Wire Wire Line
	7550 4750 7550 5250
Connection ~ 7550 5250
Wire Wire Line
	8600 4250 7550 4250
Wire Wire Line
	7550 4250 7550 4750
Connection ~ 7550 4750
$Comp
L power:GND #PWR0135
U 1 1 6176F8F3
P 11100 6250
F 0 "#PWR0135" H 11100 6000 50  0001 C CNN
F 1 "GND" H 11105 6077 50  0000 C CNN
F 2 "" H 11100 6250 50  0001 C CNN
F 3 "" H 11100 6250 50  0001 C CNN
	1    11100 6250
	1    0    0    -1  
$EndComp
Wire Wire Line
	10000 5750 11100 5750
Wire Wire Line
	11100 5750 11100 6250
Wire Wire Line
	10000 5250 11100 5250
Wire Wire Line
	11100 5250 11100 5750
Connection ~ 11100 5750
Wire Wire Line
	10000 4750 11100 4750
Wire Wire Line
	11100 4750 11100 5250
Connection ~ 11100 5250
Wire Wire Line
	10000 4250 11100 4250
Wire Wire Line
	11100 4250 11100 4750
Connection ~ 11100 4750
Text GLabel 10000 4150 2    50   Input ~ 0
VSYS
Wire Wire Line
	10350 1500 10150 1500
Wire Wire Line
	10150 1700 10150 1600
Wire Wire Line
	10150 1600 10350 1600
Wire Notes Line
	3900 2850 450  2850
Wire Notes Line
	8100 3750 8100 500 
Wire Notes Line
	3900 500  3900 5800
Wire Notes Line
	450  5800 7250 5800
Wire Notes Line
	7250 3750 7250 6550
Wire Notes Line
	3900 3750 11200 3750
Text Notes 8200 650  0    100  ~ 0
Motor Driver
Text Notes 1850 600  0    100  ~ 0
Buttons
Text Notes 5200 600  0    100  ~ 0
Charger
Text Notes 1500 3100 0    100  ~ 0
Microphone
Text Notes 4100 4000 0    100  ~ 0
LCD
Text Notes 4700 6050 0    100  ~ 0
1/4" Input
Text Notes 7450 4000 0    100  ~ 0
Pico\n
$Comp
L power:VBUS #PWR0147
U 1 1 61AF9B08
P 10100 3950
F 0 "#PWR0147" H 10100 3800 50  0001 C CNN
F 1 "VBUS" H 10115 4123 50  0000 C CNN
F 2 "" H 10100 3950 50  0001 C CNN
F 3 "" H 10100 3950 50  0001 C CNN
	1    10100 3950
	1    0    0    -1  
$EndComp
Wire Wire Line
	10000 4050 10100 4050
Wire Wire Line
	10100 4050 10100 3950
Wire Wire Line
	9550 3100 9650 3100
Connection ~ 9650 3100
Wire Wire Line
	9650 3100 9750 3100
$Comp
L Transistor_FET:BS250 Q1
U 1 1 618BA935
P 6550 1000
F 0 "Q1" V 6850 1100 50  0000 L CNN
F 1 "P-FET" V 6756 955 50  0000 L CNN
F 2 "Package_TO_SOT_THT:TO-220-3_Vertical" H 6750 925 50  0001 L CIN
F 3 "http://www.vishay.com/docs/70209/70209.pdf" H 6550 1000 50  0001 L CNN
	1    6550 1000
	0    -1   -1   0   
$EndComp
Text GLabel 6750 900  2    50   Output ~ 0
VSYS
$Comp
L Connector_Generic:Conn_01x02 J4
U 1 1 617F31D6
P 7050 1850
F 0 "J4" H 6650 2050 50  0000 L CNN
F 1 "Conn_01x02" H 6650 1950 50  0000 L CNN
F 2 "Connector_JST:JST_PH_S2B-PH-K_1x02_P2.00mm_Horizontal" H 7050 1850 50  0001 C CNN
F 3 "~" H 7050 1850 50  0001 C CNN
	1    7050 1850
	1    0    0    -1  
$EndComp
$Comp
L auto-guitar-tuner:STC4054 U3
U 1 1 6186E0D7
P 5850 2050
F 0 "U3" H 5850 2677 100 0000 C CNN
F 1 "STC4054" H 5850 2511 100 0000 C CNN
F 2 "Package_TO_SOT_SMD:TSOT-23-5_HandSoldering" H 5850 2050 100 0001 C CNN
F 3 "" H 5850 2050 100 0001 C CNN
	1    5850 2050
	1    0    0    -1  
$EndComp
$Comp
L power:GND #PWR0136
U 1 1 618A11AC
P 5850 2750
F 0 "#PWR0136" H 5850 2500 50  0001 C CNN
F 1 "GND" H 5855 2577 50  0000 C CNN
F 2 "" H 5850 2750 50  0001 C CNN
F 3 "" H 5850 2750 50  0001 C CNN
	1    5850 2750
	1    0    0    -1  
$EndComp
Wire Wire Line
	5850 2600 5850 2750
Wire Wire Line
	6250 1850 6350 1850
$Comp
L power:GND #PWR0137
U 1 1 618C4DF1
P 6700 2050
F 0 "#PWR0137" H 6700 1800 50  0001 C CNN
F 1 "GND" H 6705 1877 50  0000 C CNN
F 2 "" H 6700 2050 50  0001 C CNN
F 3 "" H 6700 2050 50  0001 C CNN
	1    6700 2050
	1    0    0    -1  
$EndComp
Wire Wire Line
	6850 1950 6700 1950
Wire Wire Line
	6700 1950 6700 2050
$Comp
L Device:C C10
U 1 1 618CC5F7
P 5200 2000
F 0 "C10" H 4950 2050 50  0000 L CNN
F 1 "1uF" H 4900 1950 50  0000 L CNN
F 2 "Capacitor_SMD:C_0805_2012Metric" H 5238 1850 50  0001 C CNN
F 3 "~" H 5200 2000 50  0001 C CNN
	1    5200 2000
	1    0    0    -1  
$EndComp
Wire Wire Line
	5450 1850 5200 1850
$Comp
L power:GND #PWR0138
U 1 1 618D3C1F
P 5200 2250
F 0 "#PWR0138" H 5200 2000 50  0001 C CNN
F 1 "GND" H 5205 2077 50  0000 C CNN
F 2 "" H 5200 2250 50  0001 C CNN
F 3 "" H 5200 2250 50  0001 C CNN
	1    5200 2250
	1    0    0    -1  
$EndComp
Wire Wire Line
	5200 2150 5200 2250
$Comp
L power:VBUS #PWR0139
U 1 1 618DB13D
P 5000 900
F 0 "#PWR0139" H 5000 750 50  0001 C CNN
F 1 "VBUS" H 5015 1073 50  0000 C CNN
F 2 "" H 5000 900 50  0001 C CNN
F 3 "" H 5000 900 50  0001 C CNN
	1    5000 900 
	1    0    0    -1  
$EndComp
Connection ~ 5200 1850
Wire Wire Line
	5200 1850 5000 1850
$Comp
L Device:R_US R19
U 1 1 618E8B06
P 6400 2500
F 0 "R19" H 6468 2546 50  0000 L CNN
F 1 "2k" H 6468 2455 50  0000 L CNN
F 2 "Resistor_SMD:R_0805_2012Metric" V 6440 2490 50  0001 C CNN
F 3 "~" H 6400 2500 50  0001 C CNN
	1    6400 2500
	1    0    0    -1  
$EndComp
Wire Wire Line
	6250 2250 6400 2250
Wire Wire Line
	6400 2250 6400 2350
$Comp
L power:GND #PWR0140
U 1 1 618EEDCC
P 6400 2750
F 0 "#PWR0140" H 6400 2500 50  0001 C CNN
F 1 "GND" H 6405 2577 50  0000 C CNN
F 2 "" H 6400 2750 50  0001 C CNN
F 3 "" H 6400 2750 50  0001 C CNN
	1    6400 2750
	1    0    0    -1  
$EndComp
Wire Wire Line
	6400 2650 6400 2750
Wire Wire Line
	5000 900  5000 1200
Wire Wire Line
	6550 1200 5000 1200
Connection ~ 5000 1200
Wire Wire Line
	5000 1200 5000 1850
Wire Wire Line
	6350 900  6350 1850
Connection ~ 6350 1850
Wire Wire Line
	6350 1850 6850 1850
Wire Wire Line
	1300 900  1350 900 
Wire Wire Line
	1350 1000 1350 900 
Connection ~ 1350 900 
Wire Wire Line
	1350 900  1450 900 
Wire Wire Line
	2900 1100 2900 1250
Connection ~ 2900 1100
Wire Wire Line
	2900 1100 2800 1100
Wire Wire Line
	3000 1250 2900 1250
Wire Wire Line
	1150 2100 1250 2100
$Comp
L Device:R_US R3
U 1 1 61596402
P 1250 2400
F 0 "R3" H 1318 2446 50  0000 L CNN
F 1 "10k" H 1318 2355 50  0000 L CNN
F 2 "Resistor_SMD:R_0805_2012Metric" V 1290 2390 50  0001 C CNN
F 3 "~" H 1250 2400 50  0001 C CNN
	1    1250 2400
	1    0    0    -1  
$EndComp
Wire Wire Line
	1250 2250 1250 2100
Connection ~ 1250 2100
Wire Wire Line
	1250 2100 1300 2100
Wire Wire Line
	3050 2100 3000 2100
Wire Wire Line
	3000 2100 3000 2250
Connection ~ 3000 2100
Wire Wire Line
	3000 2100 2900 2100
$Comp
L Device:C_Small C13
U 1 1 61A71590
P 3250 3500
F 0 "C13" H 3342 3546 50  0000 L CNN
F 1 "0.1uF" H 3342 3455 50  0000 L CNN
F 2 "Capacitor_SMD:C_0805_2012Metric" H 3250 3500 50  0001 C CNN
F 3 "~" H 3250 3500 50  0001 C CNN
	1    3250 3500
	1    0    0    -1  
$EndComp
Wire Wire Line
	2900 3200 2900 3400
Wire Wire Line
	2900 3400 3250 3400
Connection ~ 2900 3400
Wire Wire Line
	2900 3400 2900 3600
$Comp
L power:GND #PWR0141
U 1 1 61A7E401
P 3250 3600
F 0 "#PWR0141" H 3250 3350 50  0001 C CNN
F 1 "GND" H 3255 3427 50  0000 C CNN
F 2 "" H 3250 3600 50  0001 C CNN
F 3 "" H 3250 3600 50  0001 C CNN
	1    3250 3600
	1    0    0    -1  
$EndComp
$Comp
L Device:C C11
U 1 1 61A89A88
P 9000 1000
F 0 "C11" H 8750 1050 50  0000 L CNN
F 1 "0.1uF" H 8700 950 50  0000 L CNN
F 2 "Capacitor_SMD:C_0805_2012Metric" H 9038 850 50  0001 C CNN
F 3 "~" H 9000 1000 50  0001 C CNN
	1    9000 1000
	1    0    0    -1  
$EndComp
$Comp
L Device:C C12
U 1 1 61A8BA29
P 10350 1000
F 0 "C12" H 10100 1050 50  0000 L CNN
F 1 "0.1uF" H 10050 950 50  0000 L CNN
F 2 "Capacitor_SMD:C_0805_2012Metric" H 10388 850 50  0001 C CNN
F 3 "~" H 10350 1000 50  0001 C CNN
	1    10350 1000
	1    0    0    -1  
$EndComp
Wire Wire Line
	9300 700  9300 800 
Wire Wire Line
	9000 850  9000 800 
Wire Wire Line
	9000 800  9300 800 
Connection ~ 9300 800 
Wire Wire Line
	9300 800  9300 1100
$Comp
L power:GND #PWR0142
U 1 1 61AA9774
P 9000 1150
F 0 "#PWR0142" H 9000 900 50  0001 C CNN
F 1 "GND" H 9005 977 50  0000 C CNN
F 2 "" H 9000 1150 50  0001 C CNN
F 3 "" H 9000 1150 50  0001 C CNN
	1    9000 1150
	1    0    0    -1  
$EndComp
$Comp
L power:GND #PWR0143
U 1 1 61AAA2B5
P 10350 1150
F 0 "#PWR0143" H 10350 900 50  0001 C CNN
F 1 "GND" H 10355 977 50  0000 C CNN
F 2 "" H 10350 1150 50  0001 C CNN
F 3 "" H 10350 1150 50  0001 C CNN
	1    10350 1150
	1    0    0    -1  
$EndComp
Wire Wire Line
	9950 700  9950 800 
Wire Wire Line
	10350 850  10350 800 
Wire Wire Line
	10350 800  9950 800 
Connection ~ 9950 800 
Wire Wire Line
	9950 800  9950 1100
$Comp
L Device:C_Small C14
U 1 1 61AEF8E9
P 3950 6850
F 0 "C14" V 4179 6850 50  0000 C CNN
F 1 "0.1uF" V 4088 6850 50  0000 C CNN
F 2 "Capacitor_SMD:C_0805_2012Metric" H 3950 6850 50  0001 C CNN
F 3 "~" H 3950 6850 50  0001 C CNN
	1    3950 6850
	1    0    0    -1  
$EndComp
$Comp
L power:GND #PWR0144
U 1 1 61B0526D
P 3950 7000
F 0 "#PWR0144" H 3950 6750 50  0001 C CNN
F 1 "GND" H 3950 6850 50  0000 C CNN
F 2 "" H 3950 7000 50  0001 C CNN
F 3 "" H 3950 7000 50  0001 C CNN
	1    3950 7000
	1    0    0    -1  
$EndComp
Wire Wire Line
	3950 6950 3950 7000
Wire Wire Line
	3650 6650 3650 6700
Wire Wire Line
	3950 6750 3950 6700
Wire Wire Line
	3950 6700 3650 6700
Connection ~ 3650 6700
Wire Wire Line
	3650 6700 3650 7000
Text Label 10150 1500 0    39   ~ 0
Motor+
Text Label 10150 1600 0    39   ~ 0
Motor-
Text Label 6400 1850 0    39   ~ 0
Bat+
Text Label 6250 2250 0    39   ~ 0
CHRG_PROG
Text Label 2100 4050 0    39   ~ 0
MIC_AMP-
Text Label 2050 3850 0    39   ~ 0
MIC_AMP+
Text Label 3450 6950 2    39   ~ 0
LINE_IN+
Text Label 3200 7400 0    39   ~ 0
LINE_IN-
$EndSCHEMATC
